{
  "auth": {
    "ecommerceappd99a1023": {
      "service": "Cognito",
      "providerPlugin": "awscloudformation",
      "dependsOn": [],
      "customAuth": false
    },
    "userPoolGroups": {
      "service": "Cognito-UserPool-Groups",
      "providerPlugin": "awscloudformation",
      "dependsOn": [
        {
          "category": "auth",
          "resourceName": "ecommerceappd99a1023",
          "attributes": [
            "UserPoolId",
            "AppClientIDWeb",
            "AppClientID",
            "IdentityPoolId"
          ]
        }
      ]
    }
  },
  "storage": {
    "producttable": {
      "service": "DynamoDB",
      "providerPlugin": "awscloudformation"
    }
  },
  "function": {
    "ecommercefunction": {
      "build": true,
      "providerPlugin": "awscloudformation",
      "service": "Lambda",
      "dependsOn": [
        {
          "category": "auth",
          "resourceName": "ecommerceappd99a1023",
          "attributes": [
            "UserPoolId"
          ]
        },
        {
          "category": "storage",
          "resourceName": "producttable",
          "attributes": [
            "Name",
            "Arn"
          ]
        }
      ]
    }
  },
  "api": {
    "ecommerceapi": {
      "service": "API Gateway",
      "providerPlugin": "awscloudformation",
      "dependsOn": [
        {
          "category": "function",
          "resourceName": "ecommercefunction",
          "attributes": [
            "Name",
            "Arn"
          ]
        }
      ]
    }
  }
}