{
  "dev": {
    "awscloudformation": {
      "AuthRoleName": "amplify-rtmessageboard-dev-185117-authRole",
      "UnauthRoleArn": "arn:aws:iam::272464408106:role/amplify-rtmessageboard-dev-185117-unauthRole",
      "AuthRoleArn": "arn:aws:iam::272464408106:role/amplify-rtmessageboard-dev-185117-authRole",
      "Region": "us-east-1",
      "DeploymentBucketName": "amplify-rtmessageboard-dev-185117-deployment",
      "UnauthRoleName": "amplify-rtmessageboard-dev-185117-unauthRole",
      "StackName": "amplify-rtmessageboard-dev-185117",
      "StackId": "arn:aws:cloudformation:us-east-1:272464408106:stack/amplify-rtmessageboard-dev-185117/c5066df0-1326-11eb-8d83-0acbfa2a24c9",
      "AmplifyAppId": "d2i3a33wf4gzh8"
    }
  }
}